{
    "version": 1,
    "disable_existing_loggers": false,

    "formatters": {
        "brief": {
            "format": "%(asctime)s - %(name)s - %(levelname)s - %(message)s"
        },
        "multi-thread": {
            "format": "%(asctime)s - %(name)s - %(levelname)s - %(threadName)s - %(message)s"
        },
        "multi-process": {
            "format": "%(asctime)s - %(name)s - %(levelname)s - %(process)d - %(message)s"
        }
    },

    "handlers": {
        "console": {
            "level": "DEBUG",
            "class": "logging.StreamHandler",
            "formatter": "brief",
            "stream": "ext://sys.stdout"
        },
        "info_file_handler": {
            "level": "INFO",
            "class": "logging.handlers.RotatingFileHandler",
            "formatter": "brief",
            "filename": "dvbs2_software_modem_info.log",
            "maxBytes": 10485760,
            "backupCount": 20,
            "encoding": "utf8"
        },
        "warning_file_handler": {
            "level": "WARNING",
            "class": "logging.handlers.RotatingFileHandler",
            "formatter": "brief",
            "filename": "dvbs2_software_modem_warning.log",
            "maxBytes": 10485760,
            "backupCount": 20,
            "encoding": "utf8"
        },
        "error_file_handler": {
            "level": "ERROR",
            "class": "logging.handlers.RotatingFileHandler",
            "formatter": "brief",
            "filename": "dvbs2_software_modem_error.log",
            "maxBytes": 10485760,
            "backupCount": 20,
            "encoding": "utf8"
        }
    },

    "loggers": {
        "dvbs2_software_modem": {
            "level": "INFO",
            "handlers": ["console"],
            "propagate": false
        }
    },

    "root": {
        "level": "INFO",
        "handlers": ["console", "info_file_handler", "warning_file_handler", "error_file_handler"]
    }
}
